Timestamp,Edad,Género ,Generación,Estado Civil,¿Tienes hijos?,¿Cuántos hermanos tienes?,¿Con quien vives?,¿Cuánto tiempo llevas viviendo ahí?(años),¿Cuántos cuartos para dormir tiene tu vivienda?,¿Cuál es máximo nivel de estudios de tu papá?,¿Cuál es el máximo nivel de estudios de tu mamá?,¿Cuentas con el apoyo de tus padres para realizar tus estudios?,¿Aproximadamente cuál es el ingreso promedio de tu hogar? (considerando a todos los que aportan),Promedio Actual,¿Cuántas materias llevas este semestre?,¿Cuántas horas estas en la escuela?,¿Cuántas materias has reprobado a lo largo de la carrera? (no cuentes la misma más de una vez),¿Cuántos exámenes extraordinarios has presentado?,¿Cuántos idiomas hablas?(Por lo menos un nivel básico),¿En cuántos lenguajes de programación tienes conocimientos?,¿Qué promedio obtuviste en el bachillerato?,¿En cuántos años terminaste el bachillerato?,¿Cuántas horas libres tienes en tu horario escolar?,¿Cuántas horas diarias duermes aproximadamente?,¿Trabajas? ,¿Cuánto tiempo tardas en llegar a la escuela? (min),¿Cuánto gastas en transporte?(al día),estudiar?,deporte?,leer?,actividades culturales?,"fiestas, reuniones con amigos, familia, etc.?","videojuegos, redes sociales, netflix, youtube, etc?",¿Estas conforme con la elección de tu carrera?,¿Estas conforme con tu facultad?,¿Cuál es tu motivación para estudiar la carrera?
2019/04/25 3:39:33 PM EST,23,Hombre,2015,Soltero(a),No,1,Mamá y Papá,22,3,escuela tecnica,escuela tecnica,Sí,8000,7.6,4,6,6,8,3,2,8.3,3,0,5,Sí,60,50,200,200,200,30,20,0,Sí,Sí,Desarrollo personal
2019/04/25 3:57:21 PM EST,22,Mujer,2015,Soltero(a),No,1,Mamá o Papá,20,1,secundaria,secundaria,No,4000,7.5,4,6,5,10,3,1,8.4,3,1,5,Sí,90,60,100,0,0,0,480,700,Sí,Sí,Ganar dinero
2019/04/25 4:30:23 PM EST,22,Mujer,2016,Soltero(a),No,4,Mamá y Papá,22,2,sin escolaridad,primaria,Sí,3600,7.4,7,11,4,1,0,1,9.7,3,3,5,Sí,60,40,120,0,15,0,60,30,Sí,Sí,Conseguir un buen trabajo
2019/04/25 4:31:07 PM EST,23,Hombre,2015,Soltero(a),No,1,Mamá y Papá,22,3,escuela tecnica,escuela tecnica,Sí,8000,7.6,4,6,6,8,3,2,8.3,3,0,5,Sí,60,50,200,200,200,30,20,0,Sí,Sí,Desarrollo personal
2019/04/25 4:44:44 PM EST,21,Mujer,2016,Soltero(a),No,1,Mamá o Papá,21,3,profesional,escuela tecnica,Sí,7000,7.8,8,6,4,5,2,1,9,3,0,6,No,90,60,2440,0,0,0,120,60,Sí,Sí,Desarrollo personal
2019/04/25 4:46:46 PM EST,22,Hombre,2016,Soltero(a),No,1,Solo,2,4,profesional,preparatoria o bachillerado,Sí,7000,8,7,13,7,0,2,2,9,3,0,8,Sí,120,70,70,12,10,2,2,9,Sí,Sí,Dedicarte a lo que te gusta
2019/04/25 4:51:39 PM EST,21,Mujer,2016,Soltero(a),No,2,Mamá y Papá,21,4,posgrado,posgrado,Sí,7500,9.01,6,6,0,0,3,4,9.5,3,0,6,Sí,120,500,120,0,0,0,360,720,Sí,Sí,Desarrollo personal
2019/04/25 4:53:28 PM EST,22,Mujer,2016,Soltero(a),No,1,Mamá o Papá,22,5,secundaria,profesional,Sí,50000,8.6,7,6,7,3,2,3,8.7,3,0,6,No,80,60,600,0,120,0,100,80,Sí,Sí,"Ya avancé mucho, ni modo que la deje."
2019/04/25 5:06:45 PM EST,21,Hombre,2016,Soltero(a),No,3,Mamá o Papá,21,3,preparatoria o bachillerado,secundaria,Sí,3000,7,7,14,5,5,1,1,8.1,3,10,5,No,70,25,2000,2000,2000,100,200,2000,Sí,Sí,Desarrollo personal
2019/04/25 5:43:57 PM EST,22,Mujer,2015,Soltero(a),No,1,Mamá y Papá,14,3,posgrado,profesional,Sí,70000,8.8,6,4,11,21,3,3,9.7,3,2,8,No,10,40,120,0,120,60,1200,900,Sí,Sí,Desarrollo personal
2019/04/25 6:00:43 PM EST,22,Mujer,2016,Soltero(a),No,0,Mamá o Papá,18,4,profesional,profesional,Sí,20000,8.56,7,8,2,4,1,1,9.7,2,4,6,Sí,10,20,5,0,3,0,4,2,Sí,Sí,Dedicarte a lo que te gusta
2019/04/25 6:04:58 PM EST,22,Hombre,2016,Soltero(a),No,2,Mamá y Papá,22,2,escuela tecnica,secundaria,Sí,8000,8.3,7,6,0,0,2,5,8.5,3,0,8,No,40,30,360,120,0,0,180,240,Sí,Sí,Dedicarte a lo que te gusta
2019/04/25 6:20:12 PM EST,22,Mujer,2015,Soltero(a),No,1,Mamá y Papá,16,3,profesional,secundaria,Sí,12000,8.02,2,5,8,1,2,1,8.5,3,4,7,No,40,40,600,0,0,0,600,180,Sí,Sí,Conseguir un buen trabajo
2019/04/25 6:24:33 PM EST,21,Hombre,2016,Soltero(a),No,1,Mamá o Papá;Hermanos (as),21,3,profesional,profesional,Sí,30000,7.4,7,12,7,7,3,0,8.4,3,5,7,No,50,48,480,0,240,0,0,3,No,No,Conseguir un buen trabajo
2019/04/25 6:26:49 PM EST,27,Hombre,2015,Soltero(a),No,3,Mamá y Papá;Hermanos (as),27,3,secundaria,primaria,Sí,30000,7.37,5,4,15,10,2,3,8,5,0,7,No,120,70,200,0,600,0,0,360,Sí,Sí,Mantener a la flaca
2019/04/25 8:12:11 PM EST,22,Mujer,2015,Soltero(a),No,1,Mamá o Papá,12,3,profesional,escuela tecnica,Sí,15000,7.98,6,7,3,2,1,3,9.03,3,2,5,No,90,400,300,0,240,0,250,500,Sí,No,Conseguir un buen trabajo
2019/04/25 9:05:20 PM EST,27,Hombre,2015,Soltero(a),No,0,Mamá y Papá,27,3,preparatoria o bachillerado,escuela tecnica,Sí,30000,8.31,3,4,7,1,1,3,8.48,3,0,5,Sí,150,52,3,0,2,0,5,24,Sí,Sí,Dedicarte a lo que te gusta
2019/04/26 12:40:32 PM EST,22,Mujer,2016,Soltero(a),No,1,Mamá y Papá,22,3,posgrado,posgrado,Sí,14000,7.8,7,12,4,2,2,1,9.1,3,1,6,Sí,15,0,100,0,30,100,0,100,Sí,Sí,Experiencia universitaria
2019/04/26 3:15:52 PM EST,21,Mujer,2014,Soltero(a),No,1,Mamá o Papá,12,2,preparatoria o bachillerado,preparatoria o bachillerado,Sí,22000,8.6,6,8,0,1,1,3,9,3,5,5,No,90,68,60,0,30,0,60,0,Sí,Sí,Dedicarte a lo que te gusta
2019/04/26 6:32:05 PM EST,21,Mujer,2016,Soltero(a),No,1,Mamá o Papá,12,5,secundaria,secundaria,Sí,13000,7.45,6,9,10,3,1,1,7.6,3,11,6,No,130,80,600,60,210,120,240,600,Sí,Sí,Conseguir un buen trabajo
2019/04/27 1:04:28 AM EST,22,Mujer,2015,Soltero(a),No,2,Mamá o Papá,5,4,profesional,escuela tecnica,Sí,30000,7.3,3,6,10,2,2,0,8.6,3,0,4,Sí,90,15,100,0,0,0,0,0,Sí,Sí,Dedicarte a lo que te gusta
2019/04/27 9:28:17 PM EST,23,Mujer,2015,Soltero(a),No,1,Solo,3,3,preparatoria o bachillerado,profesional,Sí,5000,7.6,3,4,8,5,2,3,8.9,3,2,6,Sí,60,30,60,15,15,15,60,60,Sí,Sí,Conseguir un buen trabajo
2019/04/28 10:43:04 AM EST,22,Mujer,2016,Soltero(a),No,2,Mamá o Papá;Hermanos (as),3,3,profesional,escuela tecnica,Sí,25000,8.7,5,8,4,0,3,2,9.9,3,5,7,No,120,60,180,0,60,120,720,120,Sí,No,Conseguir un buen trabajo
2019/04/28 12:21:52 PM EST,23,Mujer,2015,Soltero(a),No,1,Mamá o Papá,11,2,profesional,preparatoria o bachillerado,Sí,9000,7.97,2,8,8,3,3,3,8.51,3,0,8,No,90,40,60,60,120,0,120,180,Sí,Sí,Conseguir un buen trabajo
2019/04/28 6:22:31 PM EST,21,Mujer,2015,Soltero(a),No,1,Mamá y Papá;Hermanos (as),12,3,posgrado,preparatoria o bachillerado,Sí,15000,7.61,4,10,5,9,2,1,8.5,3,5,7,No,120,60,360,150,120,120,60,360,Sí,Sí,Conseguir un buen trabajo
2019/04/28 6:24:15 PM EST,22,Mujer,2016,Soltero(a),No,1,Solo,4,2,preparatoria o bachillerado,preparatoria o bachillerado,Sí,12000,8.6,6,4,1,5,4,3,10,3,0,6,Sí,10,0,120,0,0,0,180,120,Sí,Sí,Desarrollo personal
2019/04/28 6:25:03 PM EST,22,Mujer,2016,Soltero(a),No,1,Mamá y Papá,22,5,preparatoria o bachillerado,profesional,Sí,20000,7.3,6,14,4,3,2,4,9,3,21,4,No,20,100,450,0,200,120,360,360,Sí,Sí,Dedicarte a lo que te gusta
2019/04/28 6:36:30 PM EST,21,Mujer,2016,Soltero(a),No,1,Mamá y Papá,21,3,profesional,profesional,Sí,20000,9.01,6,6,0,1,3,2,9.8,3,1,7,No,120,97,300,50,20,20,30,50,Sí,Sí,Desarrollo personal
2019/04/28 6:41:53 PM EST,22,Mujer,2016,Soltero(a),No,1,Mamá y Papá,5,4,profesional,secundaria,Sí,15000,7,10,13,9,4,2,4,8.6,3,4.5,6,No,120,13,2,0,0,0,4,2,Sí,Sí,Conseguir un buen trabajo
2019/04/28 7:04:10 PM EST,21,Hombre,2019,Soltero(a),No,1,Mamá y Papá,6,4,profesional,profesional,Sí,15000,7.9,7,14.9,5,3,2,3,8.9,3,1000,6,No,80,40,120,0,20,0,240,240,Sí,Sí,Experiencia universitaria
2019/04/28 7:10:26 PM EST,21,Hombre,2016,Soltero(a),No,2,Mamá y Papá,21,4,preparatoria o bachillerado,preparatoria o bachillerado,Sí,40000,7.6,6,12,6,0,2,1,8,3,4,7,No,90,800,300,300,180,120,300,240,Sí,Sí,Conseguir un buen trabajo
2019/04/28 7:22:05 PM EST,21,Mujer,2016,Soltero(a),No,3,Mamá y Papá;Hermanos (as),21,5,profesional,profesional,Sí,8000,7.4,7,11,8,3,3,3,8.7,3,5,5,No,60,23,3,0,1,1,1,1,No,Sí,Desarrollo personal
2019/04/28 7:36:48 PM EST,22,Mujer,2015,Soltero(a),No,0,Mamá o Papá,10,6,secundaria,profesional,Sí,40000,8.56,6,11,5,3,2,2,8.4,3,2,8,No,20,26,60,300,60,0,120,300,Sí,Sí,Ganar dinero
2019/04/28 7:42:18 PM EST,22,Mujer,2015,Soltero(a),No,1,Mamá o Papá,1,4,secundaria,preparatoria o bachillerado,Sí,8000,8.2,6,9,5,3,3,2,9.4,3,5,8,No,20,40,180,600,60,120,180,45,Sí,Sí,Desarrollo personal
2019/04/28 7:42:56 PM EST,22,Hombre,2015,Soltero(a),No,3,Solo,4,1,preparatoria o bachillerado,preparatoria o bachillerado,Sí,4500,8.2,5,6,3,2,4,4,9.3,3,2,7,No,10,0,80,0,0,0,0,0,Sí,Sí,Ganar dinero
2019/04/28 7:48:47 PM EST,22,Hombre,2015,Soltero(a),No,2,Mamá o Papá,22,2,posgrado,secundaria,Sí,20000,7.8,6,6,6,5,4,3,8.6,3,0,7,No,90,26,30,360,60,120,300,300,Sí,No,Desarrollo personal
2019/04/28 7:56:39 PM EST,22,Hombre,2016,Soltero(a),No,1,Mamá y Papá,22,3,secundaria,secundaria,Sí,2000,7.2,5,6,4,20,2,3,8.7,3,5,8,Sí,120,40,240,200,200,100,150,500,Sí,Sí,Conseguir un buen trabajo
2019/04/28 8:03:00 PM EST,22,Mujer,2015,Soltero(a),No,2,Mamá y Papá,22,3,primaria,preparatoria o bachillerado,Sí,10000,7.8,4,4,5,2,3,1,8.4,3,5,7,No,120,40,3200,0,180,0,3200,600,Sí,Sí,Dedicarte a lo que te gusta
2019/04/28 8:56:16 PM EST,22,Hombre,2016,Soltero(a),No,2,Mamá o Papá;Hermanos (as),21,3,profesional,profesional,Sí,7500,7.8,8,14,7,1,1,0,8.59,3,4,5,No,80,60,120,0,60,180,120,180,No,Sí,Acabar
2019/04/28 9:20:27 PM EST,28,Hombre,2016,Soltero(a),No,3,Mamá y Papá,28,6,sin escolaridad,sin escolaridad,Sí,10000,7.79,5,8,7,2,3,0,8.89,3,6,5,Sí,60,28,2160,0,360,0,0,840,Sí,Sí,Desarrollo personal
2019/04/28 9:37:25 PM EST,22,Hombre,2016,Soltero(a),No,1,Mamá y Papá;Hermanos (as),10,4,secundaria,escuela tecnica,Sí,4000,8.64,6,10,6,2,1,1,8.3,3,3,7,No,80,64,60,40,20,0,30,60,Sí,Sí,Dedicarte a lo que te gusta
2019/04/28 11:02:00 PM EST,21,Mujer,2016,Soltero(a),No,2,Mamá y Papá,21,4,profesional,escuela tecnica,Sí,16000,8.1,5,6,7,3,3,3,9.2,3,3,6,No,100,100,300,180,90,120,120,120,No,Sí,Desarrollo personal
2019/04/28 11:46:41 PM EST,21,Mujer,2016,Soltero(a),No,3,Mamá y Papá,4,3,primaria,primaria,Sí,5100,7.78,7,12,5,4,2,3,8.5,3,3,6,No,40,41,240,0,60,30,120,150,Sí,Sí,Dedicarte a lo que te gusta
2019/04/29 11:38:37 AM EST,21,Mujer,2016,Soltero(a),No,3,Mamá y Papá,21,5,secundaria,secundaria,Sí,10000,7.5,6,10,3,4,2,3,9.8,4,2,7,No,15,250,180,60,30,60,120,60,Sí,Sí,Ganar dinero
2019/04/29 5:36:31 PM EST,23,Mujer,2015,Casado(a),Sí,1,Esposo e hija,7,1,secundaria,escuela tecnica,Sí,5000,7,6,9,8,6,2,4,8.5,3,4,7,No,40,40,16,150,30,0,300,300,Sí,Sí,Conseguir un buen trabajo
2019/04/29 5:36:46 PM EST,22,Mujer,2015,Soltero(a),Sí,1,Mamá y Papá,22,2,preparatoria o bachillerado,escuela tecnica,Sí,8000,7.5,4,6,5,8,2,2,8.7,3,1,4,Sí,90,35,120,0,0,0,120,180,Sí,Sí,Dedicarte a lo que te gusta
2019/04/29 5:47:34 PM EST,23,Hombre,2015,Soltero(a),No,0,Mamá y Papá,23,5,profesional,profesional,Sí,50000,8.2,5,7,4,1,3,3,9.7,3,10,8,No,50,84,5,1,3,5,2,4,Sí,Sí,No existe analista financiero y es lo más aproximado. La verdad no me arrepiento.
2019/04/29 6:03:11 PM EST,22,Mujer,2015,Soltero(a),No,1,Mamá y Papá,22,3,preparatoria o bachillerado,preparatoria o bachillerado,Sí,20000,8.2,2,8,8,4,2,4,9.2,3,10,8,Sí,90,70,90,300,100,0,200,100,Sí,Sí,Dedicarte a lo que te gusta
2019/04/29 6:08:18 PM EST,23,Hombre,2016,Soltero(a),No,2,Hermanos (as),7,3,profesional,primaria,Sí,15000,7.42,9,12,5,4,1,4,7.8,3,5,8,No,45,25,220,30,200,0,60,60,Sí,Sí,Conseguir un buen trabajo
2019/04/29 6:11:36 PM EST,22,Mujer,2016,Soltero(a),No,1,Mamá o Papá,5,6,secundaria,escuela tecnica,Sí,20000,8,7,12,3,2,1,2,9.3,3,3,7,No,60,40,8,0,0,0,8,5,No,Sí,Conseguir un buen trabajo
2019/04/29 6:17:35 PM EST,22,Mujer,2016,Soltero(a),No,3,Mamá y Papá;Hermanos (as),22,5,preparatoria o bachillerado,preparatoria o bachillerado,Sí,6000,8,4,6,3,5,2,1,7.5,3,0,8,No,20,40,120,0,0,0,120,240,Sí,Sí,Conseguir un buen trabajo
2019/04/29 6:20:31 PM EST,23,Hombre,2014,Soltero(a),No,3,Mamá y Papá,23,6,posgrado,posgrado,Sí,200000,9.8,2,2,18,12,10,13,9.9,2,1,1,No,10,800,1,1,1,1,1,1,No,No,Ganar dinero
2019/04/29 6:21:48 PM EST,22,Mujer,2015,Soltero(a),No,2,Mamá o Papá,22,2,profesional,profesional,Sí,10000,7.5,3,6,7,3,2,2,8.5,3,0,7,No,60,30,300,0,0,0,5,10,Sí,Sí,Conseguir un buen trabajo
2019/04/29 6:22:11 PM EST,25,Hombre,2014,Soltero(a),No,1,Mamá y Papá,25,3,secundaria,secundaria,Sí,30000,7.59,2,4,4,6,2,4,9.5,3,1,8,No,120,60,120,180,60,60,120,120,Sí,Sí,Desarrollo personal
2019/04/29 6:22:55 PM EST,22,Hombre,2015,Soltero(a),No,1,Con un roomie,1,1,secundaria,escuela tecnica,Sí,6000,7.6,5,4,5,2,2,5,8.6,3,0,5,Sí,5,30,3,2,0,0,6,4,Sí,Sí,Dedicarte a lo que te gusta
2019/04/29 6:23:01 PM EST,22,Hombre,2016,Soltero(a),No,2,Mamá y Papá;Hermanos (as),22,2,escuela tecnica,escuela tecnica,Sí,10000,2.5,7,9,5,5,3,2,8.7,3,3,7,No,130,50,4,0,4,0,6,30,Sí,No,Conseguir un buen trabajo
2019/04/29 6:23:06 PM EST,22,Mujer,2016,Soltero(a),No,2,Mamá o Papá;Hermanos (as),3,3,profesional,escuela tecnica,Sí,25000,8.6,5,9,4,0,3,2,9.9,3,8,6.5,No,100,60,180,0,120,180,500,120,Sí,No,Conseguir un buen trabajo
2019/04/29 6:23:41 PM EST,22,Hombre,2014,Soltero(a),No,1,Roomie,1,1,profesional,escuela tecnica,Sí,10000,7.5,6,6,8,5,2,2,8.5,3,2,6,Sí,15,20,100,180,60,60,200,60,Sí,Sí,Dedicarte a lo que te gusta
2019/04/29 6:23:53 PM EST,24,Mujer,2014,Soltero(a),No,1,Mamá o Papá;Hermanos (as),18,3,escuela tecnica,escuela tecnica,No,20000,8.3,1,6,4,4,2,3,9.6,3,0,6,Sí,120,60,120,0,0,240,240,60,Sí,Sí,Desarrollo personal
2019/04/29 6:24:03 PM EST,23,Mujer,2015,Soltero(a),No,1,Mamá y Papá,10,3,profesional,profesional,Sí,15000,7.8,5,4,5,5,2,1,8.9,3,3,6,Sí,90,50,4,0,2,1,1,3,Sí,Sí,Dedicarte a lo que te gusta
2019/04/29 6:24:30 PM EST,21,Hombre,2016,Soltero(a),No,2,Mamá y Papá,12,4,preparatoria o bachillerado,secundaria,Sí,2000,7.2,8,6,6,3,2,2,8.7,3,2,8,No,120,60,500,0,60,0,60,0,Sí,Sí,Ganar dinero
2019/04/29 6:24:33 PM EST,23,Hombre,2014,Soltero(a),Sí,2,Solo,2,4,preparatoria o bachillerado,preparatoria o bachillerado,Sí,30000,8,3,2,6,5,3,5,9,3,0,8,No,60,80,120,60,0,0,0,0,Sí,Sí,Ganar dinero
2019/04/29 6:25:31 PM EST,22,Hombre,2016,Soltero(a),No,2,Mamá y Papá,1,4,escuela tecnica,escuela tecnica,Sí,50000,7.9,6,10,8,3,2,4,9,3,2,6,No,60,100,300,200,100,100,300,100,Sí,Sí,Desarrollo personal
2019/04/29 6:25:56 PM EST,23,Hombre,2014,Soltero(a),No,3,Mamá y Papá,23,3,escuela tecnica,escuela tecnica,Sí,9000,7.4,5,8,5,5,1,1,8.4,3,0,6,No,70,31,12,2,0,1,4,6,Sí,Sí,Ayudar a promover la cultura del seguro 
2019/04/29 6:28:29 PM EST,22,Mujer,2015,Soltero(a),No,1,Mamá o Papá,2,3,profesional,profesional,Sí,12800,7.2,6,14,8,15,2,1,9.4,3,5,4,Sí,150,75,240,0,60,240,120,120,No,No,Desarrollo personal
2019/04/29 6:29:11 PM EST,22,Hombre,2015,Soltero(a),No,1,Mamá y Papá,6,3,profesional,secundaria,Sí,15000,7,6,14,10,9,3,5,9,3,3,6.5,Sí,40,25,5,0,9,0,12,96,Sí,Sí,Desarrollo personal
2019/04/29 6:29:57 PM EST,22,Mujer,2015,Soltero(a),No,1,Mamá y Papá,22,4,secundaria,secundaria,Sí,6000,7.48,3,6,4,6,2,6,8.69,3,4,8,No,48,60,240,100,30,60,60,300,Sí,Sí,Conseguir un buen trabajo
2019/04/29 6:29:58 PM EST,24,Hombre,2014,Soltero(a),No,1,Mamá y Papá,24,2,primaria,primaria,Sí,30000,7.8,3,10,5,3,2,3,8.6,3,0,6,Sí,50,50,120,0,60,0,60,120,Sí,Sí,Ganar dinero
2019/04/29 6:30:13 PM EST,22,Hombre,2016,Soltero(a),No,1,Tios,22,7,profesional,profesional,Sí,10000,7.4,7,10,6,4,2,2,8,3,4,5,No,40,100,180,45,90,0,100,180,Sí,Sí,Dedicarte a lo que te gusta
2019/04/29 6:31:25 PM EST,22,Hombre,2016,Soltero(a),No,1,Familiares ,2,4,profesional,profesional,No,100000,8,5,5,3,4,2,5,7.2,3,0,7,Sí,50,50,1360,300,420,0,240,180,Sí,Sí,Desarrollo personal
2019/04/29 6:31:29 PM EST,25,Mujer,2014,Soltero(a),No,1,Roomie,2,2,preparatoria o bachillerado,escuela tecnica,No,20000,7.5,2,10,7,7,2,3,8.6,3,0,5,Sí,40,65,400,200,60,0,360,300,Sí,Sí,Crecimiento profesional
2019/04/29 6:37:54 PM EST,22,Hombre,2015,Soltero(a),No,2,Mamá y Papá,22,2,escuela tecnica,escuela tecnica,Sí,10000,8,2,6,3,2,2,2,8.6,3,2,6,Sí,160,60,200,200,50,0,200,200,Sí,Sí,Desarrollo personal
2019/04/29 6:40:30 PM EST,24,Mujer,2014,Soltero(a),No,1,Mamá y Papá;Hermanos (as),24,3,escuela tecnica,secundaria,Sí,10000,7.15,5,6,19,14,2,4,8.05,3,0,5,Sí,180,44,240,0,60,0,0,180,Sí,Sí,Dedicarte a lo que te gusta
2019/04/29 6:41:18 PM EST,23,Hombre,2014,Unión Libre,Sí,2,Solo,1,2,preparatoria o bachillerado,preparatoria o bachillerado,No,11000,7.8,2,2,7,10,3,4,8.4,3,12,7,Sí,60,30,120,90,120,180,90,120,Sí,Sí,Desarrollo personal
2019/04/29 6:42:34 PM EST,23,Mujer,2016,Soltero(a),No,2,Mamá o Papá,23,4,secundaria,profesional,Sí,10000,8.2,7,11,5,2,2,1,8.6,3,4,8,No,30,40,780,600,200,300,240,1800,Sí,Sí,Conseguir un buen trabajo
2019/04/29 6:42:46 PM EST,23,Hombre,2014,Soltero(a),No,4,Mamá o Papá,10,3,primaria,secundaria,Sí,15000,7.48,5,8,6,4,3,2,8,9,2,8,No,60,40,240,300,45,120,240,540,Sí,Sí,Conseguir un buen trabajo
2019/04/29 6:44:46 PM EST,20,Hombre,2016,Soltero(a),No,1,Mamá y Papá,20,3,secundaria,escuela tecnica,Sí,6000,8.2,7,11,6,3,2,2,9,3,5,7,No,90,25,800,600,300,0,2500,1500,Sí,Sí,Desarrollo personal
2019/04/29 6:45:55 PM EST,21,Hombre,2016,Soltero(a),No,2,Mamá y Papá,21,3,profesional,escuela tecnica,Sí,5000,8.39,6,8,1,1,1,3,9.5,3,4,7,No,120,45,600,120,80,80,240,120,Sí,Sí,Ganar dinero
2019/04/29 6:47:17 PM EST,22,Hombre,2016,Soltero(a),No,3,Mamá y Papá,22,3,preparatoria o bachillerado,preparatoria o bachillerado,Sí,15000,7.4,5,12,9,0,1,2,8.9,3,8,5,No,120,50,300,60,60,50,180,180,Sí,Sí,Dedicarte a lo que te gusta
2019/04/29 6:48:16 PM EST,21,Mujer,2016,Soltero(a),No,2,Mamá y Papá,21,3,preparatoria o bachillerado,preparatoria o bachillerado,Sí,10500,7.5,5,8,7,3,2,2,8.5,3,6,7,No,80,70,300,0,1,0,0,3,Sí,Sí,Conseguir un buen trabajo
2019/04/29 6:48:45 PM EST,23,Hombre,2014,Soltero(a),No,2,Solo,1,1,secundaria,profesional,No,5000,7.5,2,2,47,11,2,9,8.1,3,0,7,Sí,120,200,350,200,150,120,300,360,Sí,Sí,Dedicarte a lo que te gusta
2019/04/29 6:50:51 PM EST,23,Hombre,2014,Unión Libre,Sí,2,Solo,1,2,preparatoria o bachillerado,preparatoria o bachillerado,No,11000,7.8,2,2,7,10,3,4,8.4,3,12,7,Sí,60,30,120,90,120,180,60,120,Sí,Sí,Desarrollo personal
2019/04/29 6:57:39 PM EST,22,Hombre,2015,Soltero(a),No,1,Mamá y Papá,4,2,profesional,profesional,Sí,130047,8,6,12,6,6,4,6,9,3,4,6,Sí,50,39,2,4,6,8,9,10,Sí,Sí,Desarrollo personal
2019/04/29 6:57:43 PM EST,21,Hombre,2016,Soltero(a),No,2,Mamá y Papá,13,2,sin escolaridad,primaria,Sí,8000,7.22,7,14,6,7,2,3,8.3,3,23,4,No,85,44,180,90,50,60,60,100,Sí,Sí,Dedicarte a lo que te gusta
2019/04/29 6:57:58 PM EST,22,Hombre,2015,Soltero(a),No,0,Mamá o Papá,22,1,profesional,profesional,Sí,10000,7.77,2,10,5,3,3,3,8.3,3,0,8,No,30,20,60,120,45,0,180,300,No,No,Ganar dinero
2019/04/29 6:58:24 PM EST,22,Mujer,2015,Soltero(a),No,1,Mamá y Papá,22,4,secundaria,secundaria,Sí,6000,7.48,3,6,4,6,2,6,8.69,3,4,8,No,48,60,240,100,30,60,60,300,Sí,Sí,Conseguir un buen trabajo
2019/04/29 6:58:27 PM EST,22,Mujer,2016,Soltero(a),No,1,Mamá o Papá,22,7,secundaria,preparatoria o bachillerado,Sí,6000,7.9,6,6,5,1,1,1,9,3,0,8,No,40,40,3,0,1,0,2,2,Sí,Sí,Desarrollo personal
2019/04/29 6:58:29 PM EST,21,Mujer,2016,Soltero(a),No,2,Mamá o Papá;Hermanos (as),4,2,secundaria,secundaria,Sí,3500,7.57,5,11,4,2,2,4,8.94,3,5,6,No,90,46,780,240,120,120,60,90,Sí,Sí,Dedicarte a lo que te gusta
2019/04/29 6:58:30 PM EST,22,Hombre,2016,Soltero(a),No,1,Solo,2,1,profesional,preparatoria o bachillerado,Sí,5000,7.9,7,11,3,0,2,2,8.9,3,2,8,Sí,120,70,5,5,2,2,2,5,Sí,Sí,Conseguir un buen trabajo
2019/04/29 6:58:32 PM EST,22,Hombre,2016,Soltero(a),No,1,Mamá y Papá,22,3,posgrado,profesional,Sí,13000,8.6,7,12,3,2,2,2,8.3,3,3,6,No,80,26,600,480,120,0,180,120,Sí,Sí,Desarrollo personal
2019/04/29 6:58:32 PM EST,23,Hombre,2014,Soltero(a),No,3,Mamá y Papá,23,3,escuela tecnica,escuela tecnica,Sí,14000,7.4,5,8,5,5,1,0,8.4,3,0,6,No,70,31,10,2,0,0,4,6,Sí,Sí,Conseguir un buen trabajo
2019/04/29 6:58:42 PM EST,21,Hombre,2016,Soltero(a),No,1,Mamá y Papá,21,3,profesional,profesional,Sí,60000,7.9,7,8,3,6,2,2,8.6,3,5,6,No,60,28,230,0,0,0,0,0,Sí,Sí,Desarrollo personal
2019/04/29 6:58:50 PM EST,21,Mujer,2016,Soltero(a),No,2,Mamá y Papá,1,3,escuela tecnica,escuela tecnica,Sí,40000,7,4,8,8,6,2,5,8.7,3,3,7,No,100,40,10,3,10,0,40,25,Sí,Sí,Desarrollo personal
2019/04/29 6:59:05 PM EST,22,Mujer,2016,Soltero(a),No,5,Mamá y Papá,22,2,sin escolaridad,primaria,Sí,3600,7.2,7,11,6,1,1,1,9.7,3,4,6,Sí,60,40,300,0,600,0,120,300,Sí,Sí,Conseguir un buen trabajo
2019/04/29 6:59:27 PM EST,23,Mujer,2015,Soltero(a),No,1,Mamá y Papá,10,2,profesional,profesional,Sí,15000,7.8,5,4,5,5,2,1,8.9,3,4,6,Sí,90,50,5,0,2,1,1,3,Sí,Sí,Dedicarte a lo que te gusta
2019/04/29 6:59:31 PM EST,22,Mujer,2015,Soltero(a),No,2,Mamá o Papá,5,4,profesional,escuela tecnica,Sí,30000,7.3,3,6,10,2,2,0,8.6,3,0,4,Sí,100,15,40,0,0,0,0,0,Sí,No,Dedicarte a lo que te gusta
2019/04/29 6:59:52 PM EST,22,Hombre,2016,Soltero(a),No,1,Mamá y Papá;Hermanos (as),7,3,preparatoria o bachillerado,profesional,Sí,50000,7.8,7,6,3,2,2,2,8.8,3,2,7,No,50,32,6,6,2,4,3,3,Sí,Sí,Dedicarte a lo que te gusta
2019/04/29 7:00:09 PM EST,22,Hombre,2015,Soltero(a),No,1,Solo,1,1,secundaria,preparatoria o bachillerado,Sí,6000,7.6,5,4,6,3,2,5,8.5,3,0,5,Sí,5,30,130,60,60,0,120,60,Sí,Sí,Dedicarte a lo que te gusta
2019/04/29 7:00:44 PM EST,21,Mujer,2016,Soltero(a),No,1,Mamá o Papá,21,3,preparatoria o bachillerado,profesional,Sí,6000,7.4,7,6,5,2,3,2,8.9,3,0,7,Sí,2,80,4,0,2,0,0,5,Sí,Sí,Dedicarte a lo que te gusta
2019/04/29 7:00:50 PM EST,21,Hombre,2016,Soltero(a),No,1,Mamá y Papá,21,3,preparatoria o bachillerado,escuela tecnica,Sí,16000,7.9,8,8,3,0,2,2,8.3,3,2,7,No,50,100,600,60,60,0,260,400,Sí,Sí,Desarrollo personal
2019/04/29 7:01:16 PM EST,23,Hombre,2015,Soltero(a),No,1,Mamá y Papá,10,3,escuela tecnica,escuela tecnica,Sí,20000,7.6,5,6,10,2,2,5,8.3,3,0,5,Sí,40,35,360,0,240,200,350,100,Sí,Sí,Dedicarte a lo que te gusta
2019/04/29 7:01:45 PM EST,22,Hombre,2016,Soltero(a),No,2,Mamá o Papá;Hermanos (as),22,2,profesional,escuela tecnica,Sí,50000,9.13,8,6,0,0,2,3,8.3,3,1,8,No,30,100,60,30,0,60,300,30,Sí,Sí,Desarrollo personal
2019/04/29 7:02:27 PM EST,21,Mujer,2016,Soltero(a),No,1,Mamá y Papá;Hermanos (as),19,3,profesional,escuela tecnica,Sí,15000,8.3,6,9,4,5,2,2,9.4,3,7,6,No,60,42,240,0,60,0,120,60,Sí,Sí,Dedicarte a lo que te gusta
2019/04/29 7:03:23 PM EST,22,Hombre,2016,Soltero(a),No,1,Mamá o Papá,22,3,primaria,preparatoria o bachillerado,Sí,10000,8,8,10,4,0,2,2,8.7,3,3,7,No,15,35,700,120,0,0,600,1000,Sí,Sí,Desarrollo personal
2019/04/29 7:04:03 PM EST,22,Hombre,2016,Soltero(a),No,3,Mamá y Papá;Hermanos (as),22,4,posgrado,profesional,Sí,120000,8,6,8,5,2,4,4,7.6,3,2,6,No,25,0,2520,1260,1260,630,120,200,Sí,Sí,Dedicarte a lo que te gusta
2019/04/29 7:04:12 PM EST,22,Mujer,2016,Soltero(a),No,3,"Mamá, Papá y hermano menor ",5,3,profesional,profesional,Sí,20000,7.5,6,11,3,8,5,3,9.9,3,2,8,Sí,50,24,360,380,250,120,120,120,No,Sí,Poder estudiar lo que me gusta 
2019/04/29 7:04:27 PM EST,26,Hombre,2016,Soltero(a),No,1,Mamá y Papá,17,2,preparatoria o bachillerado,secundaria,Sí,3000,7.3,6,11,7,7,1,1,8.51,3,2,5,No,45,22,4,0,3,0,15,10,Sí,Sí,Dedicarte a lo que te gusta
2019/04/29 7:05:46 PM EST,21,Hombre,2016,Unión Libre,No,2,Mamá y Papá,15,1,secundaria,primaria,Sí,6000,8,8,8,3,4,2,7,8.17,3,0,8,No,120,40,180,200,60,60,180,320,Sí,Sí,La probabilidad
2019/04/29 7:06:01 PM EST,23,Hombre,2015,Soltero(a),No,1,Mamá o Papá,8,4,profesional,profesional,Sí,20000,7.8,6,6,12,10,2,2,8,3,5,6,No,5,20,120,0,0,0,300,600,Sí,Sí,Dedicarte a lo que te gusta
2019/04/29 7:06:56 PM EST,21,Mujer,2016,Soltero(a),No,3,Mamá y Papá;Hermanos (as),21,4,profesional,escuela tecnica,Sí,30000,8.03,7,8,4,3,2,2,9.7,3,7,8,No,15,0,120,0,0,0,180,360,Sí,Sí,Dedicarte a lo que te gusta
2019/04/29 7:07:48 PM EST,22,Mujer,2015,Soltero(a),No,1,Mamá y Papá;Hermanos (as),16,3,profesional,secundaria,Sí,15000,8.02,2,5,7,1,2,1,8.5,3,4,7,No,40,45,600,0,0,180,240,180,Sí,Sí,Desarrollo personal
2019/04/29 7:10:28 PM EST,22,Mujer,2015,Soltero(a),No,2,Solo,2,3,profesional,preparatoria o bachillerado,Sí,10000,8.47,7,14,7,2,3,0,8.48,3,9,7,No,10,10,1,4,0,0,5,14,Sí,Sí,Conseguir un buen trabajo
2019/04/29 7:25:10 PM EST,23,Hombre,2011,Soltero(a),No,1,Mamá y Papá,16,4,preparatoria o bachillerado,secundaria,Sí,20000,8,3,4,8,6,2,3,9.9,3,0,6,Sí,150,70,1000,0,0,0,0,0,Sí,Sí,Conseguir un buen trabajo
2019/04/29 7:26:57 PM EST,23,Mujer,2014,Soltero(a),No,1,Mamá y Papá,23,3,escuela tecnica,secundaria,Sí,16000,8.1,2,4,6,7,2,4,8.5,3,0,5,Sí,60,40,4,8,0,0,2,8,Sí,Sí,Conseguir un buen trabajo
2019/04/29 7:40:30 PM EST,22,Hombre,2016,Soltero(a),No,1,Mamá y Papá,18,3,escuela tecnica,secundaria,Sí,10000,8.3,7,12,2,2,2,3,8.5,3,5,7,No,50,40,20,30,120,60,120,500,Sí,Sí,Desarrollo personal
2019/04/29 7:55:34 PM EST,21,Mujer,2016,Soltero(a),No,2,Mamá y Papá,10,3,profesional,profesional,Sí,20000,8.2,6,7,11,2,2,3,8.45,3,7,6,No,110,39,80,0,0,0,120,120,Sí,Sí,Conseguir un buen trabajo
2019/04/29 8:24:06 PM EST,23,Mujer,2015,Soltero(a),No,0,Mamá o Papá,23,2,secundaria,escuela tecnica,Sí,3500,6.99,8,14,17,25,5,5,8.4,3,6,6,Sí,120,60,120,0,120,180,120,180,Sí,Sí,Dedicarte a lo que te gusta
2019/04/29 8:30:44 PM EST,22,Mujer,2016,Soltero(a),No,2,Mamá y Papá,22,3,preparatoria o bachillerado,secundaria,Sí,4000,8.39,7,11,2,2,2,3,9.4,3,5,8,No,30,40,120,30,120,60,180,180,Sí,Sí,Conseguir un buen trabajo
2019/04/29 8:37:55 PM EST,23,Mujer,2016,Soltero(a),No,3,Mamá y Papá,23,3,secundaria,preparatoria o bachillerado,Sí,5500,6.8,4,12,6,4,2,4,8.4,3,4,6,No,180,70,6120,60,36,0,1920,120,Sí,Sí,Dedicarte a lo que te gusta
2019/04/29 9:24:31 PM EST,22,Mujer,2016,Soltero(a),No,1,Mamá y Papá,22,3,primaria,preparatoria o bachillerado,Sí,5000,7.3,9,12,7,13,1,3,8.5,3,4,8,Sí,40,26,3,0,0,5,7,0,Sí,Sí,Dedicarte a lo que te gusta
2019/04/29 9:36:16 PM EST,23,Hombre,2015,Soltero(a),No,0,Mamá o Papá,23,3,secundaria,secundaria,Sí,13000,7,7,4,9,10,2,3,8.2,3,0,6,Sí,120,56,2,0,0,0,1,5,Sí,Sí,Desarrollo personal
2019/04/29 10:11:08 PM EST,22,Mujer,2016,Soltero(a),No,1,Mamá y Papá;Hermanos (as),19,2,posgrado,escuela tecnica,Sí,20000,7.66,5,7,5,9,2,2,8.9,3,3,5,No,40,36,360,0,30,0,180,1260,Sí,Sí,Conseguir un buen trabajo
2019/04/29 10:56:20 PM EST,24,Hombre,2014,Soltero(a),No,1,Mamá y Papá,24,2,profesional,profesional,Sí,24000,7.15,4,6,6,10,3,3,8.2,4,4,4,Sí,120,70,120,60,0,120,180,120,Sí,Sí,Dedicarte a lo que te gusta
2019/04/29 11:13:46 PM EST,22,Hombre,2015,Soltero(a),No,1,Mamá y Papá,22,2,secundaria,preparatoria o bachillerado,Sí,24000,8.1,5,6,6,2,2,3,8.69,3,0,4,Sí,90,50,6,5,2,0,2,3,Sí,Sí,Experiencia universitaria
2019/04/29 11:14:14 PM EST,25,Mujer,2016,Soltero(a),No,25,Mamá y tía ,25,5,profesional,preparatoria o bachillerado,Sí,30000,8.95,3,6,4,6,5,8,9.45,3,2,5,Sí,30,55,3,0,0,0,0,0,Sí,Sí,Dedicarte a lo que te gusta
2019/04/29 11:18:18 PM EST,23,Hombre,2016,Soltero(a),No,1,Mamá o Papá,23,4,primaria,profesional,Sí,20000,8,7,9,4,2,3,1,8,3,2,8,No,20,0,240,5,2,1,2,5,Sí,Sí,Desarrollo personal
2019/04/29 11:27:40 PM EST,22,Mujer,2016,Soltero(a),No,1,Mamá y Papá,22,3,posgrado,posgrado,Sí,15000,7.8,7,10,4,2,2,1,9.1,3,2,6,Sí,15,0,100,0,30,100,0,120,Sí,Sí,Dedicarte a lo que te gusta
2019/04/29 11:28:29 PM EST,21,Mujer,2017,Soltero(a),No,1,Solo,4,3,secundaria,secundaria,Sí,7000,9.3,7,8,0,0,1,1,9.6,3,9,6,No,16,15,1000,0,60,0,60,300,Sí,Sí,Conseguir un buen trabajo
2019/04/29 11:29:40 PM EST,20,Mujer,2017,Soltero(a),No,0,Mamá y Papá,9,2,profesional,preparatoria o bachillerado,Sí,26000,7.8,6,13,4,3,3,1,8.6,3,5,6,No,20,40,180,3600,100,50,5000,240,No,Sí,Conseguir un buen trabajo
2019/04/29 11:30:07 PM EST,21,Mujer,2016,Soltero(a),No,3,Mamá y Papá;Hermanos (as),19,5,profesional,profesional,Sí,8000,7.6,7,13,8,3,2,3,8.3,3,5,5,No,19,0,3,0,1,2,1,1,No,Sí,Desarrollo personal
2019/04/29 11:30:12 PM EST,20,Hombre,2018,Soltero(a),No,1,Mamá y Papá,14,4,primaria,escuela tecnica,Sí,8000,8.5,6,13,1,1,2,2,8.6,3,6,4,Sí,60,43,120,6,1,2,0,6,Sí,Sí,Desarrollo personal
2019/04/29 11:30:16 PM EST,20,Mujer,2017,Soltero(a),No,0,Mamá y Papá,10,2,profesional,preparatoria o bachillerado,Sí,10000,7.81,7,14,2,2,1,2,8.9,3,5,5,No,60,52,240,0,0,0,0,0,Sí,Sí,Desarrollo personal
2019/04/29 11:30:24 PM EST,20,Hombre,2017,Soltero(a),No,1,Mamá y Papá,7,3,preparatoria o bachillerado,preparatoria o bachillerado,Sí,10000,9.1,7,11,3,2,2,0,9.5,3,4,7,No,1,25,10,0,3,5,2,2,Sí,Sí,Dedicarte a lo que te gusta
2019/04/29 11:30:37 PM EST,20,Mujer,2017,Soltero(a),No,3,Mamá o Papá,20,4,escuela tecnica,secundaria,Sí,3000,7.8,5,8,4,2,2,1,8.8,3,5,9,No,30,0,0,0,0,0,300,400,No,Sí,Ganar dinero
2019/04/29 11:31:18 PM EST,23,Mujer,2016,Soltero(a),No,2,Mamá o Papá,1,3,preparatoria o bachillerado,profesional,Sí,5000,8.71,6,13,0,0,2,2,9.98,3,12,5,No,40,45,120,0,60,0,60,180,Sí,Sí,Conseguir un buen trabajo
2019/04/29 11:31:25 PM EST,20,Hombre,2017,Soltero(a),No,1,Mamá y Papá,15,3,preparatoria o bachillerado,secundaria,Sí,5000,8.62,7,13,2,0,3,2,8.82,3,7,5,Sí,105,50,20,0,15,30,300,240,Sí,Sí,Conseguir un buen trabajo
2019/04/29 11:31:38 PM EST,22,Hombre,2017,Soltero(a),No,2,Mamá y Papá;Hermanos (as),22,5,escuela tecnica,secundaria,Sí,7000,8.3,7,13,25,2,2,3,8.7,3,5,3.5,Sí,120,50,350,0,0,0,0,60,Sí,Sí,Dedicarte a lo que te gusta
2019/04/29 11:31:56 PM EST,21,Mujer,2017,Soltero(a),No,1,Mamá y Papá,21,5,preparatoria o bachillerado,preparatoria o bachillerado,Sí,20000,7.5,6,12,5,3,1,2,8.9,3,3,6,Sí,90,30,350,90,60,60,150,90,Sí,No,Conseguir un buen trabajo
2019/04/29 11:32:00 PM EST,21,Hombre,2017,Soltero(a),No,1,Mamá y Papá,20,10,posgrado,profesional,Sí,20000,9.73,7,10,0,0,1,2,9.12,3,2,7,No,5,0,360,0,15,0,0,10,No,Sí,Ganar dinero
2019/04/29 11:32:09 PM EST,22,Mujer,2016,Soltero(a),No,4,Mamá y Papá;Hermanos (as),13,3,secundaria,secundaria,Sí,30000,7.5,9,13,10,15,2,3,8.6,3,3,6,No,150,70,60,90,30,0,120,120,Sí,Sí,Dedicarte a lo que te gusta
2019/04/29 11:33:20 PM EST,21,Hombre,2017,Soltero(a),No,2,Mamá y Papá;Hermanos (as),1,1,primaria,secundaria,Sí,3000,7.45,6,8,3,2,1,3,8.56,3,4,6,Sí,180,36,60,0,0,0,0,30,Sí,Sí,Dedicarte a lo que te gusta
2019/04/29 11:33:27 PM EST,20,Mujer,2017,Soltero(a),No,3,Mamá y Papá,20,4,escuela tecnica,secundaria,Sí,3000,7.8,5,8,4,2,2,1,8.8,3,5,9,No,30,0,0,0,0,0,300,400,No,Sí,Ganar dinero
2019/04/29 11:33:34 PM EST,20,Hombre,2017,Soltero(a),No,0,Mamá y Papá,20,3,secundaria,secundaria,Sí,18000,7.8,6,10,3,0,2,3,8.5,3,11,6,No,20,0,120,600,60,0,300,120,Sí,Sí,Desarrollo personal
2019/04/29 11:34:17 PM EST,20,Mujer,2017,Soltero(a),No,1,Mamá o Papá,20,3,primaria,escuela tecnica,Sí,20000,8,6,13,2,4,3,3,8.7,4,2.5,4,No,90,60,3000,0,0,120,240,240,Sí,Sí,Dedicarte a lo que te gusta
2019/04/29 11:35:44 PM EST,20,Mujer,2017,Soltero(a),No,1,Mamá y Papá,20,2,escuela tecnica,escuela tecnica,Sí,3000,7.8,6,13,2,1,2,2,9.5,3,1,5,No,90,60,250,120,120,0,120,720,Sí,Sí,Ganar dinero
2019/04/29 11:35:55 PM EST,20,Mujer,2017,Soltero(a),No,2,Mamá y Papá,18,4,secundaria,primaria,Sí,8000,8.25,7,8,2,1,2,3,8.6,3,3,6,No,120,48,600,0,60,0,240,240,Sí,Sí,Conseguir un buen trabajo
2019/04/29 11:36:20 PM EST,21,Mujer,2015,Soltero(a),No,2,Mamá y Papá,21,5,profesional,profesional,Sí,10000,9,5,4,2,1,2,3,9,3,2,8,No,30,20,30,0,0,0,0,0,Sí,Sí,Dedicarte a lo que te gusta
2019/04/29 11:36:33 PM EST,20,Hombre,2017,Soltero(a),No,1,Mamá y Papá,20,2,secundaria,preparatoria o bachillerado,Sí,5000,8.8,8,12,3,3,1,2,9.3,3,6,3,No,75,36,120,0,0,0,60,200,Sí,Sí,Desarrollo personal
2019/04/29 11:36:42 PM EST,21,Mujer,2017,Soltero(a),No,2,Mamá y Papá,21,4,escuela tecnica,primaria,Sí,4000,8.19,7,12,1,1,1,2,9.4,3,3,6,No,35,50,360,0,360,0,60,900,Sí,Sí,Conseguir un buen trabajo
2019/04/29 11:37:13 PM EST,21,Mujer,2017,Soltero(a),No,2,Mamá y Papá;Hermanos (as),21,4,posgrado,profesional,Sí,60000,8.9,6,12,0,0,2,3,9.6,3,20,5,No,15,0,1200,150,60,0,300,600,No,Sí,Conseguir un buen trabajo
2019/04/29 11:37:26 PM EST,21,Hombre,2017,Soltero(a),No,1,Solo,3,48,preparatoria o bachillerado,posgrado,Sí,60000,8.75,8,10,1,0,3,3,9.6,1,20,6,No,8,0,120,60,0,0,0,240,No,Sí,Conseguir un buen trabajo
2019/04/29 11:37:30 PM EST,20,Mujer,2017,Soltero(a),No,2,Mamá y Papá,10,4,preparatoria o bachillerado,profesional,Sí,11000,8.06,8,13,5,0,2,1,8.45,3,7,5,No,20,38,10,0,2,6,2,8,No,Sí,Mi familia me dijo que no estudiara Letras clásicas así que heme aquí. 
2019/04/29 11:37:52 PM EST,20,Mujer,2017,Soltero(a),No,3,Mamá y Papá,20,2,escuela tecnica,primaria,Sí,5600,7.6,8,14,5,8,2,2,8.9,3,4,5,No,120,80,5,0,0,0,0,0,Sí,No,Ganar dinero
2019/04/29 11:38:38 PM EST,22,Hombre,2014,Soltero(a),No,1,Mamá y Papá,8,2,profesional,preparatoria o bachillerado,Sí,22500,7.2,6,8,15,5,1,3,7.8,3,4,8,No,85,50,8,0,2,0,4,10,Sí,Sí,Desarrollo personal
2019/04/29 11:39:06 PM EST,23,Hombre,2016,Soltero(a),No,2,Mamá y Papá,17,4,secundaria,secundaria,Sí,6500,8.4,7,8,1,1,2,3,7.1,4,8,10,No,160,45,500,10,10,0,0,1000,Sí,Sí,Conseguir un buen trabajo
2019/04/29 11:40:22 PM EST,21,Hombre,2017,Soltero(a),No,2,Hermanos (as),5,2,secundaria,secundaria,Sí,8000,8.4,8,10,4,2,0,1,8.56,3,3,6,No,90,26,120,0,0,0,180,900,Sí,Sí,Dedicarte a lo que te gusta
2019/04/29 11:40:58 PM EST,20,Hombre,2017,Soltero(a),No,3,Mamá y Papá,20,5,secundaria,preparatoria o bachillerado,Sí,8000,7.9,7,13,6,0,3,4,8.56,3,5,4,No,120,50,800,600,300,1000,400,500,Sí,No,Conseguir un buen trabajo
2019/04/29 11:44:41 PM EST,21,Hombre,2017,Soltero(a),No,2,Mamá y Papá,21,3,escuela tecnica,escuela tecnica,Sí,3000,8.9,7,14,0,0,1,2,9.1,3,4,4,No,45,80,15,0,0,0,5,5,Sí,Sí,Desarrollo personal
2019/04/29 11:47:03 PM EST,20,Mujer,2017,Soltero(a),No,1,Mamá o Papá,20,3,profesional,preparatoria o bachillerado,Sí,12000,8.5,6,9,4,4,1,2,8.4,3,7,5,No,45,60,240,6,0,0,6,6,Sí,Sí,Conseguir un buen trabajo
2019/04/29 11:53:41 PM EST,23,Mujer,2015,Soltero(a),No,4,Solo,3,1,primaria,sin escolaridad,Sí,7000,7.15,4,4,8,3,2,2,8.6,3,0,5,Sí,15,26,700,60,180,120,60,180,Sí,Sí,Desarrollo personal
2019/04/29 11:58:53 PM EST,22,Hombre,2016,Soltero(a),No,1,Mamá o Papá;Hermanos (as),20,3,secundaria,primaria,Sí,6500,7.5,7,12,5,4,3,4,8.8,3,3,5,No,30,40,900,720,210,0,1260,1260,Sí,Sí,Desarrollo personal
2019/04/30 12:08:25 AM EST,21,Mujer,2018,Soltero(a),No,4,Solo,2,9,profesional,preparatoria o bachillerado,Sí,20000,8.2,6,8,2,0,3,4,8.3,3,3,6,No,20,0,40,30,50,120,40,120,Sí,Sí,Conseguir un buen trabajo
2019/04/30 12:09:59 AM EST,20,Hombre,2017,Soltero(a),No,3,Solo,2,3,primaria,secundaria,Sí,9000,8.1,5,5,5,2,3,3,9.8,3,0,6,No,60,40,500,0,120,120,120,100,No,No,Ganar dinero
2019/04/30 12:10:37 AM EST,20,Hombre,2017,Soltero(a),No,2,Mamá y Papá,20,4,profesional,profesional,Sí,100000,7.3,6,10,3,1,3,2,8.6,3,4,8,No,30,80,300,0,120,0,300,600,Sí,Sí,Ganar dinero
2019/04/30 12:10:45 AM EST,19,Hombre,2018,Soltero(a),No,2,Mamá y Papá,19,3,profesional,profesional,Sí,8000,8.01,6,12,5,0,1,1,8.1,3,0,6,No,60,60,60,15,0,0,60,60,Sí,Sí,Dedicarte a lo que te gusta
2019/04/30 12:10:53 AM EST,18,Hombre,2018,Soltero(a),No,0,Solo,2,1,profesional,preparatoria o bachillerado,Sí,6000,8,6,12,2,0,1,0,8.7,3,6,6,No,15,20,120,0,0,0,0,120,Sí,Sí,Conseguir un buen trabajo
2019/04/30 12:11:00 AM EST,20,Mujer,2018,Soltero(a),No,1,Mamá y Papá,20,3,preparatoria o bachillerado,escuela tecnica,Sí,10000,7.5,7,12,4,1,1,2,8.5,3,4,5,Sí,45,30,60,0,60,0,90,30,Sí,Sí,Conseguir un buen trabajo
2019/04/30 12:11:25 AM EST,19,Hombre,2018,Soltero(a),No,1,Mamá y Papá,19,3,profesional,profesional,Sí,10000,7.4,5,6,3,1,2,3,8.7,3,2,6,No,90,56,480,360,120,0,90,60,No,Sí,Conseguir un buen trabajo
2019/04/30 12:11:53 AM EST,19,Hombre,2018,Soltero(a),No,0,Mamá o Papá,19,4,sin escolaridad,primaria,No,7500,7.58,6,6,4,2,1,2,8.68,3,4,6,Sí,45,40,2,0,2,0,0,2,Sí,Sí,Desarrollo personal
2019/04/30 12:11:57 AM EST,20,Hombre,2018,Soltero(a),No,1,Mamá y Papá,20,4,secundaria,escuela tecnica,Sí,20000,7.6,4,4,2,0,1,2,8.4,3,4,8,No,15,20,12,0,6,4,6,4,Sí,Sí,Dedicarte a lo que te gusta
2019/04/30 12:12:02 AM EST,20,Hombre,2018,Soltero(a),No,2,Mamá y Papá;Hermanos (as),20,4,profesional,profesional,Sí,40000,7.7,7,12,4,0,2,1,8.4,3,4,4,No,60,19,80,240,20,0,180,600,Sí,Sí,Dedicarte a lo que te gusta
2019/04/30 12:12:33 AM EST,19,Hombre,2018,Soltero(a),No,1,Mamá o Papá,1,2,secundaria,profesional,Sí,3500,7.4,5,14,4,3,1,0,8.2,3,5,6,No,40,28,20,0,0,0,0,0,No,Sí,Ganar dinero
2019/04/30 12:13:01 AM EST,19,Mujer,2018,Soltero(a),No,1,Mamá y Papá,19,5,profesional,profesional,Sí,80000,8,6,8,3,0,2,1,9,3,6,8,No,3,0,120,60,20,0,60,180,Sí,Sí,Dedicarte a lo que te gusta
2019/04/30 12:13:21 AM EST,20,Hombre,2018,Soltero(a),No,2,Mamá y Papá;Hermanos (as),20,3,primaria,secundaria,Sí,4500,7.8,4,6,4,1,1,1,9,3,2,6,No,110,60,180,500,60,0,120,500,Sí,Sí,Desarrollo personal
2019/04/30 12:13:21 AM EST,19,Mujer,2018,Soltero(a),No,0,Mamá o Papá,19,2,primaria,primaria,Sí,5000,7.3,7,10,5,2,2,2,8.9,3,2,7,No,90,48,500,0,500,180,400,1000,Sí,Sí,Conseguir un buen trabajo
2019/04/30 12:13:25 AM EST,19,Hombre,2015,Soltero(a),No,2,Mamá y Papá;Hermanos (as),19,3,profesional,primaria,Sí,30000,7.6,6,10,5,2,2,3,8.3,3,4,8,No,1,50,60,9,30,0,5,10,Sí,Sí,Desarrollo personal
2019/04/30 12:13:30 AM EST,19,Hombre,2018,Soltero(a),No,1,Mamá y Papá,19,3,escuela tecnica,secundaria,Sí,6000,7.9,5,8,3,2,2,4,8.6,3,3,5,Sí,75,40,5,0,2,0,0,3,Sí,Sí,Conseguir un buen trabajo
2019/04/30 12:13:32 AM EST,21,Mujer,2016,Soltero(a),No,2,Mamá o Papá,21,3,profesional,escuela tecnica,Sí,6000,7,6,8,5,8,1,1,8.16,3,0,5,Sí,90,50,60,0,0,0,60,0,Sí,Sí,Conseguir un buen trabajo
2019/04/30 12:13:37 AM EST,20,Mujer,2018,Soltero(a),No,1,Solo,1,4,secundaria,profesional,Sí,6000,7.8,6,13,4,1,3,2,8.6,3,3,6,No,15,20,150,0,0,0,0,0,Sí,Sí,Conseguir un buen trabajo
2019/04/30 12:14:09 AM EST,19,Mujer,2018,Soltero(a),No,1,Mamá y Papá;Hermanos (as),11,3,profesional,profesional,Sí,15000,7.8,5,6,3,1,3,3,8.2,3,5,5,No,120,18,5,200,60,0,200,200,Sí,Sí,Dedicarte a lo que te gusta
2019/04/30 12:16:17 AM EST,21,Hombre,2018,Soltero(a),No,3,Hermanos (as),7,1,sin escolaridad,sin escolaridad,No,10000,7.66,6,6,4,3,2,3,8.16,3,0,4,Sí,80,26,300,50,100,0,0,60,Sí,Sí,Dedicarte a lo que te gusta
2019/04/30 12:16:41 AM EST,21,Mujer,2017,Soltero(a),No,3,Mamá y Papá,20,5,profesional,profesional,Sí,9000,7.8,7,10,4,3,0,0,8.89,3,3,6,No,120,50,300,0,0,0,300,120,Sí,Sí,Conseguir un buen trabajo y ganas bien para vivir bien 
2019/04/30 12:16:48 AM EST,20,Hombre,2017,Soltero(a),No,3,Mamá y Papá,20,2,sin escolaridad,primaria,Sí,3000,8,6,8,5,4,3,1,9.35,3,3,7,Sí,70,70,60,300,40,60,50,500,Sí,Sí,Conseguir un buen trabajo
2019/04/30 12:24:07 AM EST,23,Hombre,2016,Unión Libre,No,2,Solo,2,1,secundaria,secundaria,No,5000,8,7,6,7,10,2,3,8.5,3,6,6,Sí,20,0,120,0,120,0,0,240,Sí,Sí,Dedicarte a lo que te gusta
2019/04/30 12:24:11 AM EST,20,Hombre,2017,Soltero(a),No,1,Mamá o Papá,15,3,profesional,escuela tecnica,Sí,25000,8.1,5,11,3,0,2,0,8.7,3,5,7,No,150,56,450,300,150,0,120,700,Sí,Sí,Conseguir un buen trabajo
2019/04/30 12:26:52 AM EST,21,Mujer,2017,Unión Libre,No,2,Mamá o Papá,21,4,preparatoria o bachillerado,escuela tecnica,Sí,4000,8.07,6,10,3,1,1,3,9.43,3,4.5,6,No,45,40,720,0,0,0,240,800,Sí,Sí,Dedicarte a lo que te gusta
2019/04/30 12:28:19 AM EST,19,Mujer,2018,Soltero(a),No,3,Mamá y Papá,19,1,secundaria,secundaria,Sí,4000,8,6,9,2,1,1,2,9.23,3,4,5,No,90,50,1000,0,200,120,500,400,Sí,Sí,Conseguir un buen trabajo
2019/04/30 12:28:27 AM EST,20,Hombre,2017,Soltero(a),No,1,Mamá y Papá,20,2,preparatoria o bachillerado,escuela tecnica,Sí,15000,7,5,8,3,1,2,1,8.5,3,4,4,No,120,50,50,70,20,120,150,200,Sí,No,Ganar dinero
2019/04/30 12:28:57 AM EST,21,Mujer,2018,Soltero(a),No,0,Mamá o Papá;Solo,2,5,profesional,preparatoria o bachillerado,Sí,19000,8.3,6,8,4,0,3,4,8.2,3,3,6,No,20,0,120,240,120,360,40,120,Sí,Sí,Ganar dinero
2019/04/30 12:30:15 AM EST,20,Mujer,2018,Soltero(a),No,2,Mamá y Papá;Hermanos (as),20,3,profesional,preparatoria o bachillerado,Sí,7000,8.2,6,11,4,0,3,1,8.3,3,5,6.7,No,120,35,420,120,900,200,180,600,Sí,Sí,Desarrollo personal
2019/04/30 12:30:43 AM EST,20,Hombre,2018,Soltero(a),No,2,Mamá y Papá,20,4,primaria,escuela tecnica,Sí,5000,7.9,6,10,4,2,2,2,8.6,3,4,6,No,60,40,240,1,2,30,4,10,Sí,Sí,Desarrollo personal
2019/04/30 12:31:52 AM EST,20,Hombre,2018,Soltero(a),No,1,Mamá y Papá,20,4,posgrado,profesional,Sí,30000,8.2,5,8,2,1,3,2,8.5,3,4,7,No,60,80,120,120,0,0,120,120,Sí,No,Conseguir un buen trabajo
2019/04/30 12:32:14 AM EST,19,Mujer,2018,Soltero(a),No,3,Mamá o Papá,15,2,preparatoria o bachillerado,preparatoria o bachillerado,Sí,6000,6.67,4,8,4,0,1,3,8.81,3,8,6,No,120,50,120,0,60,120,60,300,Sí,Sí,Dedicarte a lo que te gusta
2019/04/30 12:37:53 AM EST,20,Mujer,2018,Soltero(a),No,1,Mamá y Papá,14,2,preparatoria o bachillerado,preparatoria o bachillerado,Sí,8000,8,6,8,1,1,2,2,8.9,3,2,7,No,20,20,360,120,60,60,600,150,Sí,Sí,Dedicarte a lo que te gusta
2019/04/30 12:42:42 AM EST,24,Mujer,2014,Soltero(a),No,7,Mamá o Papá;Hermanos (as),24,3,profesional,secundaria,Sí,5000,7,7,8,16,35,1,1,8.63,3,0,7,Sí,120,50,60,0,0,0,60,30,Sí,No,Conseguir un buen trabajo
2019/04/30 12:42:57 AM EST,22,Hombre,2018,Soltero(a),No,1,Mamá y Papá;Hermanos (as),22,3,profesional,profesional,Sí,70000,7.9,5,9,8,0,2,2,8.1,3,14,7,No,90,40,840,300,150,0,150,300,Sí,Sí,Desarrollo personal
2019/04/30 12:43:15 AM EST,19,Hombre,2018,Soltero(a),No,2,Mamá o Papá,18,3,sin escolaridad,primaria,Sí,10000,7.9,5,12,4,2,2,2,8.9,3,5,4,No,20,20,360,0,60,0,50,120,Sí,Sí,Dedicarte a lo que te gusta
2019/04/30 12:49:29 AM EST,20,Mujer,2017,Soltero(a),No,0,Mamá o Papá,20,2,preparatoria o bachillerado,secundaria,Sí,5000,7,5,10,6,2,1,1,8.5,3,5,8,No,100,50,3600,0,0,0,5,21,Sí,Sí,Ganar dinero
2019/04/30 12:52:20 AM EST,20,Mujer,2017,Soltero(a),No,0,Mamá o Papá,20,3,secundaria,secundaria,Sí,4500,6.9,5,8,5,1,0,0,8.6,3,5,9,No,90,40,840,0,0,0,8,800,Sí,Sí,Dedicarte a lo que te gusta
2019/04/30 1:20:30 AM EST,19,Mujer,2018,Soltero(a),No,3,Mamá o Papá,10,2,preparatoria o bachillerado,preparatoria o bachillerado,Sí,6000,6.67,4,8,4,0,2,3,8.81,3,5,6,No,120,50,120,0,30,50,30,300,Sí,Sí,Dedicarte a lo que te gusta
2019/04/30 1:25:14 AM EST,19,Mujer,2018,Soltero(a),No,2,Mamá y Papá,5,2,secundaria,secundaria,Sí,5000,7.8,6,10,4,0,1,1,8.9,3,3,7,No,40,40,600,0,0,0,240,300,Sí,Sí,Dedicarte a lo que te gusta
2019/04/30 1:30:22 AM EST,21,Hombre,2016,Soltero(a),No,2,Mamá y Papá;Hermanos (as),21,8,secundaria,secundaria,Sí,4000,8,8,10,6,4,2,3,8.6,3,2,6,No,120,48,1200,240,60,100,200,200,Sí,Sí,Desarrollo personal
2019/04/30 2:05:44 AM EST,20,Hombre,2018,Soltero(a),No,0,Solo,2,4,preparatoria o bachillerado,preparatoria o bachillerado,Sí,25000,7.3,7,8,3,2,2,2,8.1,3,4,4,No,15,10,25,0,0,0,5,5,Sí,Sí,Dedicarte a lo que te gusta
2019/04/30 2:09:08 AM EST,19,Hombre,2017,Soltero(a),No,3,Mamá o Papá,19,3,profesional,escuela tecnica,Sí,6000,7.8,5,11,3,2,3,4,8.99999999,3,0,6,Sí,60,44,1800,1500,390,0,390,750,Sí,Sí,"Desarrollo personal y social, avanzar a mi sociedad"
2019/04/30 3:59:50 AM EST,20,Hombre,2018,Soltero(a),No,4,Mamá y Papá,20,4,profesional,secundaria,Sí,17000,7.97,7,13,4,4,1,2,9.97,3,4,4,No,40,40,840,0,90,0,180,350,Sí,Sí,Dedicarte a lo que te gusta
2019/04/30 5:30:41 AM EST,19,Hombre,2018,Soltero(a),No,1,Mamá o Papá;Hermanos (as),10,3,profesional,preparatoria o bachillerado,Sí,6000,7.9,2,8,3,2,1,2,9,3,8,7,Sí,50,100,8,2,0,0,4,4,Sí,Sí,Conseguir un buen trabajo
2019/04/30 5:43:35 AM EST,20,Hombre,2018,Soltero(a),No,1,Mamá y Papá;Hermanos (as),2,5,profesional,escuela tecnica,Sí,15000,8,5,12,3,1,1,3,8.6,3,4,6,Sí,50,40,20,10,3,1,4,2,Sí,Sí,Conseguir un buen trabajo
2019/04/30 5:56:06 AM EST,19,Hombre,2018,Soltero(a),No,2,Mamá o Papá,8,4,preparatoria o bachillerado,secundaria,Sí,5000,7.9,3,6,2,3,1,2,9,3,4,6,Sí,60,44,300,120,100,0,600,500,Sí,Sí,Dedicarte a lo que te gusta
2019/04/30 6:03:21 AM EST,21,Mujer,2017,Soltero(a),No,2,Mamá o Papá,3,2,escuela tecnica,escuela tecnica,Sí,5000,8.03,7,13,2,3,2,2,8.5,3,2,6,No,180,70,1450,0,20,0,9,4,Sí,Sí,Desarrollo personal
2019/04/30 6:19:42 AM EST,20,Hombre,2017,Soltero(a),No,0,Mamá y Papá,20,3,secundaria,secundaria,Sí,5000,7.1,5,12,4,0,1,2,8.5,3,4,6,No,150,40,150,360,100,0,120,200,Sí,Sí,Conseguir un buen trabajo
2019/04/30 7:16:44 AM EST,21,Mujer,2017,Soltero(a),No,1,Mamá y Papá,21,4,profesional,preparatoria o bachillerado,Sí,10000,9.43,7,12,0,0,2,1,9.55,3,4,7,No,60,50,180,0,60,0,60,120,Sí,Sí,Ganar dinero
2019/04/30 7:39:45 AM EST,20,Mujer,2017,Soltero(a),No,2,Mamá y Papá;Hermanos (as),20,3,secundaria,escuela tecnica,Sí,3000,7.8,7,13,3,1,3,2,9.8,3,3,5,No,90,60,300,60,60,0,300,100,Sí,Sí,Ganar dinero
2019/04/30 7:39:50 AM EST,21,Mujer,2017,Soltero(a),No,5,Mamá y Papá;Hermanos (as),21,3,preparatoria o bachillerado,secundaria,Sí,2600,8.2,7,13,1,1,2,2,9.8,3,1,5,No,75,50,300,60,60,0,300,100,Sí,Sí,Conseguir un buen trabajo
2019/04/30 7:57:49 AM EST,20,Hombre,2017,Soltero(a),No,1,Mamá y Papá,20,2,preparatoria o bachillerado,preparatoria o bachillerado,Sí,18000,7.5,8,13,6,5,1,2,8.6,3,4,6,No,40,50,1000,600,120,400,200,300,Sí,Sí,Ganar dinero
2019/04/30 8:05:58 AM EST,20,Mujer,2017,Soltero(a),No,2,Mamá y Papá;Hermanos (as),20,4,preparatoria o bachillerado,profesional,Sí,6000,7.9,7,14,3,4,2,2,9.2,3,4,7,No,90,52,120,0,0,0,0,0,Sí,Sí,Conseguir un buen trabajo
2019/04/30 8:18:24 AM EST,19,Hombre,2018,Soltero(a),No,3,Mamá y Papá,5,3,posgrado,profesional,Sí,35000,8.4,5,9,2,0,3,2,8.03,3,1,6,No,90,50,840,800,200,0,200,1400,Sí,Sí,Desarrollo personal
2019/04/30 8:24:55 AM EST,20,Hombre,2017,Soltero(a),No,0,Solo,1,1,profesional,profesional,Sí,10000,7.76,7,13,7,4,2,0,8.86,3,5,6,No,20,40,180,0,20,100,180,100,Sí,Sí,Dedicarte a lo que te gusta
2019/04/30 8:27:50 AM EST,19,Mujer,2018,Soltero(a),No,1,Mamá o Papá,5,2,escuela tecnica,secundaria,Sí,6000,7.5,5,9,3,0,1,2,8.3,3,3,7,No,30,20,30,0,15,0,60,60,Sí,Sí,Dedicarte a lo que te gusta
2019/04/30 8:30:51 AM EST,19,Hombre,2018,Unión Libre,No,0,Solo,2,1,profesional,profesional,Sí,40000,7.71,4,12,4,1,3,1,9.4,3,3,6,No,60,50,120,0,0,0,180,60,Sí,Sí,Dedicarte a lo que te gusta
2019/04/30 8:32:34 AM EST,19,Hombre,2017,Soltero(a),No,2,Mamá o Papá,19,2,preparatoria o bachillerado,secundaria,Sí,6000,8.3,5,6,2,0,2,0,8.5,3,2,6,No,70,36,180,2,1,1,1,3,Sí,Sí,Conseguir un buen trabajo
2019/04/30 8:36:05 AM EST,19,Hombre,2018,Soltero(a),No,0,Solo,2,3,primaria,posgrado,Sí,3500,7.2,7,12,3,0,2,3,8.1,3,2,6,Sí,20,0,60,0,0,0,1,3,No,No,Ganar dinero
2019/04/30 8:47:47 AM EST,19,Mujer,2018,Soltero(a),No,4,Mamá y Papá;Hermanos (as),9,3,secundaria,secundaria,Sí,12000,8.3,4,9,4,1,1,0,9.3,3,3,8,No,45,40,3,0,0,0,2,10,Sí,Sí,Conseguir un buen trabajo
2019/04/30 8:59:38 AM EST,21,Hombre,2017,Soltero(a),No,2,Mamá y Papá,21,2,secundaria,secundaria,Sí,3000,8.6,8,13,2,5,1,3,8.7,3,1,8,No,40,50,300,0,0,0,300,300,No,Sí,Dedicarte a lo que te gusta
2019/04/30 9:13:48 AM EST,20,Mujer,2018,Soltero(a),No,2,Mamá o Papá,20,4,profesional,secundaria,Sí,10000,7.9,3,5,5,1,2,2,7.5,3,12,7,No,90,40,90,0,30,0,3600,3600,Sí,Sí,Desarrollo personal
2019/04/30 9:26:33 AM EST,27,Hombre,2016,Soltero(a),No,2,Mamá y Papá,27,4,preparatoria o bachillerado,secundaria,Sí,10000,7.75,7,9,2,2,2,7,7.5,3,2,6,No,100,40,150,0,30,0,60,90,Sí,Sí,Conseguir un buen trabajo
2019/04/30 9:26:56 AM EST,21,Mujer,2017,Soltero(a),No,1,Mamá y Papá,21,2,secundaria,secundaria,Sí,1200,7.6,7,13,3,2,1,1,9.2,3,15,5,No,90,50,300,120,120,0,0,120,No,No,Ganar dinero
2019/04/30 9:39:29 AM EST,19,Mujer,2017,Soltero(a),No,0,Mamá o Papá,19,1,profesional,profesional,Sí,6000,7.9,6,12,2,0,2,1,8.4,3,10,6,No,60,40,60,0,0,0,240,20,Sí,Sí,Ganar dinero
2019/04/30 10:24:15 AM EST,21,Hombre,2017,Soltero(a),No,2,Mamá y Papá,17,4,escuela tecnica,profesional,Sí,10000,8,6,10,3,1,2,2,9.2,3,4,6,Sí,50,0,8,12,8,10,1,10,Sí,Sí,Conseguir un buen trabajo
2019/04/30 10:26:11 AM EST,20,Mujer,2017,Soltero(a),No,1,Mamá y Papá;Hermanos (as),20,3,profesional,preparatoria o bachillerado,Sí,10000,8.4,7,13,0,0,3,5,8.66,3,3,5,No,120,26,1050,180,420,0,300,240,Sí,Sí,Ganar dinero
2019/04/30 10:34:15 AM EST,19,Mujer,2018,Soltero(a),No,1,Mamá o Papá,19,9,preparatoria o bachillerado,escuela tecnica,Sí,18000,7.8,5,12,2,0,1,4,8.1,3,3,5,No,120,36,6,0,3,0,2,2,Sí,Sí,Desarrollo personal
2019/04/30 10:35:32 AM EST,19,Hombre,2018,Soltero(a),No,2,Mamá y Papá,19,2,escuela tecnica,secundaria,Sí,12000,6.78,6,8,6,6,3,2,8.3,3,2,8,No,60,30,200,200,0,0,300,1000,Sí,No,Desarrollo personal
2019/04/30 10:38:16 AM EST,21,Mujer,2016,Soltero(a),No,2,Mamá y Papá,21,2,profesional,escuela tecnica,Sí,6000,8.89,7,12,6,1,2,2,8.56,3,4,6,No,120,30,200,0,30,60,120,60,Sí,Sí,Conseguir un buen trabajo
2019/04/30 10:59:37 AM EST,21,Hombre,2016,Soltero(a),No,2,Mamá o Papá;Hermanos (as),21,4,posgrado,profesional,Sí,40000,8.3,6,8,3,0,4,3,9.5,3,7,7,No,30,70,230,120,0,120,9,60,Sí,Sí,Conseguir un buen trabajo
2019/04/30 11:09:25 AM EST,23,Hombre,2018,Soltero(a),No,1,Abuelos,15,3,escuela tecnica,secundaria,Sí,5000,6.8,3,4,8,0,1,1,8.68,3,3,8,Sí,130,50,5,12,3,0,4,7,Sí,Sí,Desarrollo personal
2019/04/30 11:12:18 AM EST,19,Mujer,2018,Soltero(a),No,2,Mamá y Papá;Hermanos (as),19,3,primaria,escuela tecnica,Sí,10000,8,6,8,1,1,2,2,8.9,3,4,6,No,120,70,300,240,60,0,500,600,Sí,Sí,Desarrollo personal
2019/04/30 11:25:31 AM EST,19,Mujer,2018,Soltero(a),No,2,Solo,2,9,profesional,secundaria,Sí,10000,7.8,4,6,4,0,2,0,8.2,3,4,5,No,15,0,6,0,1,0,7,10,No,Sí,Entregarle un título a mis papás
2019/04/30 11:30:28 AM EST,21,Mujer,2017,Soltero(a),No,3,Mamá y Papá,21,3,secundaria,primaria,Sí,10000,7.5,6,13,4,2,1,1,8.8,3,5,6,No,120,36,840,6,6,4,5,2,Sí,Sí,Dedicarte a lo que te gusta
2019/04/30 11:53:38 AM EST,20,Hombre,2017,Soltero(a),No,2,Mamá y Papá;Hermanos (as),20,2,profesional,escuela tecnica,Sí,11000,7.89,7,12,5,1,2,2,8.75,3,11,6,No,100,38,360,240,0,0,180,180,Sí,No,Dedicarte a lo que te gusta
2019/04/30 12:41:44 PM EST,26,Hombre,2017,Soltero(a),No,4,Mamá y Papá,26,5,primaria,primaria,Sí,8000,7.92,6,6,5,5,2,1,9.81,3,0,6,Sí,60,45,480,0,120,0,360,360,Sí,Sí,Desarrollo personal
2019/04/30 1:47:16 PM EST,23,Mujer,2016,Soltero(a),No,4,Mamá y Papá;Hermanos (as),23,7,secundaria,secundaria,Sí,20000,9,6,8,0,0,2,3,8,3,2,9,No,60,60,120,0,0,0,0,240,Sí,Sí,Dedicarte a lo que te gusta
2019/04/30 2:57:54 PM EST,21,Hombre,2017,Soltero(a),No,1,Solo,2,1,posgrado,profesional,Sí,41000,8.17,5,10,4,2,2,2,8.62,3,6,6,No,5,10,42,0,4,0,4,1,Sí,Sí,Dedicarte a lo que te gusta
2019/04/30 9:26:46 PM EST,22,Hombre,2018,Soltero(a),No,2,Mamá o Papá,21,3,profesional,profesional,Sí,7500,7.8,8,14,5,1,1,1,8.59,3,4,5,No,120,80,60,60,60,60,60,60,No,Sí,Experiencia universitaria
2019/04/30 9:34:26 PM EST,19,Hombre,2018,Soltero(a),No,1,Mamá o Papá;Hermanos (as),13,2,primaria,secundaria,Sí,1000,7.64,3,10,3,2,1,1,8.8,3,8,5,No,40,40,300,150,150,0,150,150,Sí,Sí,Conseguir un buen trabajo
2019/05/01 1:36:03 AM EST,22,Hombre,2016,Soltero(a),No,1,Mamá o Papá,22,3,escuela tecnica,escuela tecnica,Sí,30000,7.7,5,8,10,10,2,2,8.3,3,2,5,No,90,50,120,0,0,0,600,600,Sí,Sí,Dedicarte a lo que te gusta
2019/05/01 10:08:33 AM EST,19,Hombre,2018,Soltero(a),No,1,Mamá o Papá,2,2,profesional,profesional,Sí,17000,8.81,6,9,1,0,1,3,9.8,3,6,7,No,55,12,240,240,70,35,70,170,Sí,Sí,Desarrollo personal
2019/05/01 11:13:08 AM EST,20,Mujer,2017,Soltero(a),No,1,Mamá o Papá,20,3,escuela tecnica,escuela tecnica,Sí,12000,8.5,6,10,4,4,1,2,8.4,3,7,5,No,45,60,240,6,1,0,4,4,Sí,Sí,Conseguir un buen trabajo
2019/05/01 1:09:48 PM EST,21,Mujer,2017,Soltero(a),No,0,Mamá o Papá,19,2,posgrado,profesional,Sí,20000,7.9,6,12,1,1,2,1,8.4,3,3,6,No,60,100,500,300,300,0,600,300,Sí,Sí,Desarrollo personal
2019/05/01 4:56:15 PM EST,21,Hombre,2017,Soltero(a),No,0,Mamá o Papá,13,2,profesional,preparatoria o bachillerado,Sí,3000,8,7,13,3,6,2,0,8.8,3,3,4,No,120,30,10,0,0,0,2,10,Sí,No,Ganar dinero
2019/05/01 5:25:17 PM EST,19,Mujer,2018,Soltero(a),No,1,Mamá y Papá,16,3,secundaria,escuela tecnica,Sí,10000,7.5,6,10,5,0,3,1,9,3,7,5,No,50,42,120,360,120,120,60,180,Sí,Sí,Conseguir un buen trabajo
2019/05/01 10:08:45 PM EST,21,Mujer,2017,Soltero(a),No,2,Mamá y Papá,21,4,escuela tecnica,primaria,Sí,4000,8.19,7,12,1,1,1,2,9.4,3,3,6,No,35,50,360,0,360,0,60,900,Sí,Sí,Conseguir un buen trabajo
2019/05/01 10:34:20 PM EST,20,Mujer,2017,Soltero(a),No,2,Mamá y Papá,20,2,escuela tecnica,profesional,Sí,10000,7.5,6,14,1,0,4,0,8.9,3,6,6,No,150,50,300,480,160,60,240,1700,No,No,Conseguir un buen trabajo
2019/05/02 2:48:55 PM EST,20,Mujer,2018,Soltero(a),No,2,Mamá y Papá,20,2,primaria,secundaria,Sí,20000,7.9,6,8,3,0,2,5,8.08,3,13,5,No,120,60,800,0,180,0,120,90,Sí,Sí,Desarrollo personal
2019/05/02 5:51:43 PM EST,21,Hombre,2017,Soltero(a),No,2,Mamá y Papá;Hermanos (as),21,3,profesional,escuela tecnica,Sí,8000,8.35,7,13,2,2,3,1,8.62,3,15,5,No,80,29,300,30,69,60,0,60,Sí,Sí,Dedicarte a lo que te gusta
2019/05/03 11:49:48 AM EST,21,Mujer,2016,Soltero(a),No,0,Mamá y Papá,21,2,preparatoria o bachillerado,primaria,Sí,5600,7.2,4,6,11,9,2,2,8.4,3,2,4,No,150,60,1260,0,50,0,0,0,Sí,No,Experiencia universitaria
2019/05/03 3:26:09 PM EST,22,Hombre,2016,Soltero(a),No,1,Mamá y Papá,19,3,profesional,secundaria,Sí,4500,7.45,6,13,5,5,3,2,8.4,3,4,5,No,120,40,120,0,30,0,60,60,Sí,Sí,Ganar dinero
2019/05/03 11:28:34 PM EST,21,Hombre,2017,Soltero(a),No,1,Mamá y Papá,21,2,escuela tecnica,escuela tecnica,Sí,8000,7.46,6,12,6,3,1,1,8.96,3,5,6,No,90,40,650,0,100,0,20,80,Sí,Sí,Desarrollo personal
